Assignments/Assignment-1-UVM/dump.vcd
$date
	Mon Dec  2 05:59:29 2024
$end
$version
	QuestaSim Version 2023.1
$end
$timescale
	1ns
$end

$scope module top $end

$scope module dut1 $end
$upscope $end

$scope module dut_if1 $end
$var reg 1 ! clock $end
$var reg 4 " counter [3:0] $end
$var reg 1 # enable $end
$var reg 1 $ reset $end
$var reg 1 % up_down $end
$upscope $end
$upscope $end
$enddefinitions $end
#0
$dumpvars
0!
bx "
x#
x$
x%
$end
#5
1!
1$
#10
0!
1#
1%
#15
1!
b0 "
#20
0!
#25
1!
#30
0!
#35
1!
#40
0!
#45
1!
#50
0!
0$
#55
1!
b1 "
#60
0!
#65
1!
b10 "
#70
0!
#75
1!
b11 "
#80
0!
#85
1!
b100 "
#90
0!
1$
#95
1!
b0 "
#100
0!
#105
1!
#110
0!
#115
1!
#120
0!
#125
1!
#130
0!
0%
#135
1!
b1111 "
#140
0!
#145
1!
#150
0!
#155
1!
#160
0!
#165
1!
#170
0!
0$
#175
1!
b1110 "
#180
0!
#185
1!
b1101 "
#190
0!
#195
1!
b1100 "
#200
0!
#205
1!
b1011 "
#210
0!
1$
#215
1!
b1111 "
#220
0!
#225
1!
#230
0!
#235
1!
#240
0!
#245
1!
#250
0!
#255
1!
#260
0!
#265
1!
#270
0!
#275
1!
#280
0!
#285
1!
#290
0!
1%
#295
1!
b0 "
#300
0!
#305
1!
#310
0!
#315
1!
#320
0!
#325
1!
#330
0!
#335
1!
#340
0!
#345
1!
#350
0!
#355
1!
#360
0!
#365
1!
#370
0!
0$
0#
0%
#375
1!
#380
0!
#385
1!
#390
0!
#395
1!
#400
0!
#405
1!
#410
0!
1#
#415
1!
b1111 "
#420
0!
#425
1!
b1110 "
#430
0!
#435
1!
b1101 "
#440
0!
#445
1!
b1100 "
#450
0!
1$
#455
1!
b1111 "
#460
0!
#465
1!
#470
0!
#475
1!
#480
0!
#485
1!
#490
0!
1%
#495
1!
b0 "
#500
0!
#505
1!
#510
0!
#515
1!
#520
0!
#525
1!
#530
0!
#535
1!
#540
0!
#545
1!
#550
0!
#555
1!
#560
0!
#565
1!
#570
0!
0%
#575
1!
b1111 "
#580
0!
#585
1!
#590
0!
#595
1!
#600
0!
#605
1!
#610
0!
0$
1%
#615
1!
b0 "
#620
0!
#625
1!
b1 "
#630
0!
#635
1!
b10 "
#640
0!
#645
1!
b11 "
#650
0!
1$
#655
1!
b0 "
#660
0!
#665
1!
#670
0!
#675
1!
#680
0!
#685
1!
#690
0!
#695
1!
#700
0!
#705
1!
#710
0!
#715
1!
#720
0!
#725
1!
#730
0!
#735
1!
#740
0!
#745
1!
#750
0!
#755
1!
#760
0!
#765
1!
#770
0!
0%
#775
1!
b1111 "
#780
0!
#785
1!
#790
0!
#795
1!
#800
0!
#805
1!
#810
0!
0$
#815
1!
b1110 "
#820
0!
#825
1!
b1101 "
#830
0!
#835
1!
b1100 "
#840
0!
#845
1!
b1011 "
#850
0!
1$
0#
#855
1!
b1111 "
#860
0!
#865
1!
#870
0!
#875
1!
#880
0!
#885
1!
#890
0!
0$
1#
1%
#895
1!
b0 "
#900
0!
#905
1!
b1 "
#910
0!
#915
1!
b10 "
#920
0!
#925
1!
b11 "
#930
0!
1$
0%
#935
1!
b1111 "
#940
0!
#945
1!
#950
0!
#955
1!
#960
0!
#965
1!
#970
0!
1%
#975
1!
b0 "
#980
0!
#985
1!
#990
0!
#995
1!
#1000
0!
#1005
1!
#1010
0!
#1015
1!
#1020
0!
#1025
1!
#1030
0!
#1035
1!
#1040
0!
#1045
1!
#1050
0!
0%
#1055
1!
b1111 "
#1060
0!
#1065
1!
#1070
0!
#1075
1!
#1080
0!
#1085
1!
#1090
0!
1%
#1095
1!
b0 "
#1100
0!
#1105
1!
#1110
0!
#1115
1!
#1120
0!
#1125
1!
#1130
0!
0%
#1135
1!
b1111 "
#1140
0!
#1145
1!
#1150
0!
#1155
1!
#1160
0!
#1165
1!
#1170
0!
0#
1%
#1175
1!
b0 "
#1180
0!
#1185
1!
#1190
0!
#1195
1!
#1200
0!
#1205
1!
#1210
0!
#1215
1!
#1220
0!
#1225
1!
#1230
0!
#1235
1!
#1240
0!
#1245
1!
#1250
0!
0$
1#
0%
#1255
1!
b1111 "
#1260
0!
#1265
1!
b1110 "
#1270
0!
#1275
1!
b1101 "
#1280
0!
#1285
1!
b1100 "
#1290
0!
#1295
1!
b1011 "
#1300
0!
#1305
1!
b1010 "
#1310
0!
#1315
1!
b1001 "
#1320
0!
#1325
1!
b1000 "
#1330
0!
1%
#1335
1!
b1001 "
#1340
0!
#1345
1!
b1010 "
#1350
0!
#1355
1!
b1011 "
#1360
0!
#1365
1!
b1100 "
#1370
0!
1$
0%
#1375
1!
b1111 "
#1380
0!
#1385
1!
#1390
0!
#1395
1!
#1400
0!
#1405
1!
#1410
0!
1%
#1415
1!
b0 "
#1420
0!
#1425
1!
#1430
0!
#1435
1!
#1440
0!
#1445
1!
#1450
0!
#1455
1!
#1460
0!
#1465
1!
#1470
0!
#1475
1!
#1480
0!
#1485
1!
#1490
0!
#1495
1!
#1500
0!
#1505
1!
#1510
0!
#1515
1!
#1520
0!
#1525
1!
#1530
0!
0%
#1535
1!
b1111 "
#1540
0!
#1545
1!
#1550
0!
#1555
1!
#1560
0!
#1565
1!
#1570
0!
#1575
1!
#1580
0!
#1585
1!
#1590
0!
#1595
1!
#1600
0!
#1605
1!
#1610
0!
#1615
1!
#1620
0!
#1625
1!
#1630
0!
#1635
1!
#1640
0!
#1645
1!
#1650
0!
0#
#1655
1!
#1660
0!
#1665
1!
#1670
0!
#1675
1!
#1680
0!
#1685
1!
#1690
0!
1#
1%
#1695
1!
b0 "
#1700
0!
#1705
1!
#1710
0!
#1715
1!
#1720
0!
#1725
1!
#1730
0!
0$
#1735
1!
b1 "
#1740
0!
#1745
1!
b10 "
#1750
0!
#1755
1!
b11 "
#1760
0!
#1765
1!
b100 "
#1770
0!
1$
0%
#1775
1!
b1111 "
#1780
0!
#1785
1!
#1790
0!
#1795
1!
#1800
0!
#1805
1!
#1810
0!
0$
#1815
1!
b1110 "
#1820
0!
#1825
1!
b1101 "
#1830
0!
#1835
1!
b1100 "
#1840
0!
#1845
1!
b1011 "
#1850
0!
1$
#1855
1!
b1111 "
#1860
0!
#1865
1!
#1870
0!
#1875
1!
#1880
0!
#1885
1!
#1890
0!
#1895
1!
#1900
0!
#1905
1!
#1910
0!
#1915
1!
#1920
0!
#1925
1!
#1930
0!
1%
#1935
1!
b0 "
#1940
0!
#1945
1!
#1950
0!
#1955
1!
#1960
0!
#1965
1!
#1970
0!
0%
#1975
1!
b1111 "
